{
  "defaultSeverity": "error",
  "extends": ["tslint-config-airbnb"],
  "jsRules": {},
  "rules": {
    "max-line-length": [true, 5000],
    "quotemark": [true, "single"],
    "semicolon": [true, "never"],
    "trailing-comma": [true, { "multiline": "always", "singleline": "never" }],
    "no-console": [true, "console.log", "warning"],
    "arrow-parens": [true, "ban-single-arg-parens"],
    "object-literal-sort-keys": false,
    "object-literal-key-quotes": [true, "as-needed"]
  },
  "rulesDirectory": []
}
